{
    "chatOptions": {
        "chatModeOn": true,
        "lootChannelOpen": false,
        "openChannels": [
            3,
            4
        ]
    },
    "clientOptionsVersion": 6,
    "clientWindowOptions": {
        "clientWindowHeight": 600,
        "clientWindowIsBorderless": false,
        "clientWindowIsMaximized": false,
        "clientWindowPositionX": 283,
        "clientWindowPositionY": 64,
        "clientWindowScreenName": "\\\\.\\DISPLAY1",
        "clientWindowWidth": 800
    },
    "convertedLegacyConfiguration": true,
    "hotkeyOptions": {
        "autoSwitchHotkeyPreset": false,
        "currentHotkeySetName": "druid",
        "hotkeySets": {
            "Default": {
                "actionBarOptions": {
                    "mappings": [
                    ]
                },
                "chatOff": [
                    {
                        "actionsetting": {
                            "action": "ToggleBattlelist"
                        },
                        "keysequence": "Ctrl+B"
                    },
                    {
                        "actionsetting": {
                            "action": "Copy"
                        },
                        "keysequence": "Ctrl+C"
                    },
                    {
                        "actionsetting": {
                            "action": "ShowDefaultChannel"
                        },
                        "keysequence": "Alt+D"
                    },
                    {
                        "actionsetting": {
                            "action": "CloseCurrentChannel"
                        },
                        "keysequence": "Ctrl+E"
                    },
                    {
                        "actionsetting": {
                            "action": "ToggleFullscreen"
                        },
                        "keysequence": "Ctrl+F"
                    },
                    {
                        "actionsetting": {
                            "action": "ChangeCharacter"
                        },
                        "keysequence": "Ctrl+G"
                    },
                    {
                        "actionsetting": {
                            "action": "ShowLenshelp"
                        },
                        "keysequence": "Ctrl+H"
                    },
                    {
                        "actionsetting": {
                            "action": "ShowIgnorelist"
                        },
                        "keysequence": "Ctrl+I"
                    },
                    {
                        "actionsetting": {
                            "action": "NextHotkeyPreset"
                        },
                        "keysequence": "Ctrl+J"
                    },
                    {
                        "actionsetting": {
                            "action": "ShowOptionsHotkeys"
                        },
                        "keysequence": "Ctrl+K"
                    },
                    {
                        "actionsetting": {
                            "action": "Logout"
                        },
                        "keysequence": "Ctrl+L"
                    },
                    {
                        "actionsetting": {
                            "action": "ToggleShowServermessagesInCurrentChannel"
                        },
                        "keysequence": "Ctrl+M"
                    },
                    {
                        "actionsetting": {
                            "action": "ToggleCreatureHudsVisible"
                        },
                        "keysequence": "Ctrl+N"
                    },
                    {
                        "actionsetting": {
                            "action": "OpenChannelList"
                        },
                        "keysequence": "Ctrl+O"
                    },
                    {
                        "actionsetting": {
                            "action": "ToggleVipWidget"
                        },
                        "keysequence": "Ctrl+P"
                    },
                    {
                        "actionsetting": {
                            "action": "Logout"
                        },
                        "keysequence": "Ctrl+Q"
                    },
                    {
                        "actionsetting": {
                            "action": "ToggleMounted"
                        },
                        "keysequence": "Ctrl+R"
                    },
                    {
                        "actionsetting": {
                            "action": "ToggleSkillsWidget"
                        },
                        "keysequence": "Alt+S"
                    },
                    {
                        "actionsetting": {
                            "action": "ToggleSpellListWidget"
                        },
                        "keysequence": "Alt+L"
                    },
                    {
                        "actionsetting": {
                            "action": "OpenHelpChannel"
                        },
                        "keysequence": "Ctrl+T"
                    },
                    {
                        "actionsetting": {
                            "action": "ShowQuestlog"
                        },
                        "keysequence": "Ctrl+U"
                    },
                    {
                        "actionsetting": {
                            "action": "ClearOldestMessage"
                        },
                        "keysequence": "Alt+W"
                    },
                    {
                        "actionsetting": {
                            "action": "ShowPrey"
                        },
                        "keysequence": "Ctrl+Y"
                    },
                    {
                        "actionsetting": {
                            "action": "Bugreport"
                        },
                        "keysequence": "Ctrl+Z"
                    },
                    {
                        "actionsetting": {
                            "action": "StopPlayer"
                        },
                        "keysequence": "Esc"
                    },
                    {
                        "actionsetting": {
                            "action": "NextChannel"
                        },
                        "keysequence": "Tab"
                    },
                    {
                        "actionsetting": {
                            "action": "AttackNextTarget"
                        },
                        "keysequence": "Space"
                    },
                    {
                        "actionsetting": {
                            "action": "AttackPreviousTarget"
                        },
                        "keysequence": "Ctrl+Space"
                    },
                    {
                        "actionsetting": {
                            "action": "PreviousChannel"
                        },
                        "keysequence": "Shift+Backtab"
                    },
                    {
                        "actionsetting": {
                            "action": "MinimapFloorUp"
                        },
                        "keysequence": "Alt+PgUp"
                    },
                    {
                        "actionsetting": {
                            "action": "MinimapFloorDown"
                        },
                        "keysequence": "Alt+PgDown"
                    },
                    {
                        "actionsetting": {
                            "action": "MinimapZoomOut"
                        },
                        "keysequence": "Alt+Home"
                    },
                    {
                        "actionsetting": {
                            "action": "MinimapZoomIn"
                        },
                        "keysequence": "Alt+End"
                    },
                    {
                        "actionsetting": {
                            "action": "MinimapScrollWest"
                        },
                        "keysequence": "Alt+Left"
                    },
                    {
                        "actionsetting": {
                            "action": "MinimapScrollEast"
                        },
                        "keysequence": "Alt+Right"
                    },
                    {
                        "actionsetting": {
                            "action": "MinimapScrollNorth"
                        },
                        "keysequence": "Alt+Up"
                    },
                    {
                        "actionsetting": {
                            "action": "MinimapScrollSouth"
                        },
                        "keysequence": "Alt+Down"
                    },
                    {
                        "actionsetting": {
                            "action": "ToggleFPSLagIndicator"
                        },
                        "keysequence": "Alt+F8"
                    },
                    {
                        "actionsetting": {
                            "action": "ToggleFullscreen"
                        },
                        "keysequence": "Alt+Return"
                    },
                    {
                        "actionsetting": {
                            "action": "ChatModeTemporaryOn"
                        },
                        "keysequence": "Return"
                    },
                    {
                        "actionsetting": {
                            "action": "ChatModeTemporaryOn"
                        },
                        "keysequence": "Num+Enter"
                    },
                    {
                        "actionsetting": {
                            "action": "GoNorth"
                        },
                        "keysequence": "W"
                    },
                    {
                        "actionsetting": {
                            "action": "GoWest"
                        },
                        "keysequence": "A"
                    },
                    {
                        "actionsetting": {
                            "action": "GoSouth"
                        },
                        "keysequence": "S"
                    },
                    {
                        "actionsetting": {
                            "action": "GoEast"
                        },
                        "keysequence": "D"
                    },
                    {
                        "actionsetting": {
                            "action": "GoNorthWest"
                        },
                        "keysequence": "Q"
                    },
                    {
                        "actionsetting": {
                            "action": "GoSouthWest"
                        },
                        "keysequence": "Z"
                    },
                    {
                        "actionsetting": {
                            "action": "GoNorthEast"
                        },
                        "keysequence": "E"
                    },
                    {
                        "actionsetting": {
                            "action": "GoSouthEast"
                        },
                        "keysequence": "C"
                    },
                    {
                        "actionsetting": {
                            "action": "TriggerActionButton_1.6"
                        },
                        "keysequence": "F6"
                    },
                    {
                        "actionsetting": {
                            "action": "TriggerActionButton_1.7"
                        },
                        "keysequence": "F7"
                    },
                    {
                        "actionsetting": {
                            "action": "TriggerActionButton_1.8"
                        },
                        "keysequence": "F8"
                    },
                    {
                        "actionsetting": {
                            "action": "TriggerActionButton_1.9"
                        },
                        "keysequence": "F9"
                    },
                    {
                        "actionsetting": {
                            "action": "TriggerActionButton_1.10"
                        },
                        "keysequence": "F10"
                    },
                    {
                        "actionsetting": {
                            "action": "TriggerActionButton_1.11"
                        },
                        "keysequence": "F11"
                    },
                    {
                        "actionsetting": {
                            "action": "TriggerActionButton_1.12"
                        },
                        "keysequence": "F12"
                    },
                    {
                        "actionsetting": {
                            "useObject": 239,
                            "useType": "UseOnYourself"
                        },
                        "keysequence": "F1"
                    },
                    {
                        "actionsetting": {
                            "chatText": "exori gran",
                            "sendAutomatically": true
                        },
                        "keysequence": "F2"
                    },
                    {
                        "actionsetting": {
                            "chatText": "exori gran ico",
                            "sendAutomatically": true
                        },
                        "keysequence": "F3"
                    },
                    {
                        "actionsetting": {
                            "useObject": 9086,
                            "useType": "Use"
                        },
                        "keysequence": "F4"
                    },
                    {
                        "actionsetting": {
                            "chatText": "exori",
                            "sendAutomatically": true
                        },
                        "keysequence": "F5"
                    }
                ],
                "chatOn": [
                    {
                        "actionsetting": {
                            "action": "SelectAll"
                        },
                        "keysequence": "Ctrl+A"
                    },
                    {
                        "actionsetting": {
                            "action": "ToggleBattlelist"
                        },
                        "keysequence": "Ctrl+B"
                    },
                    {
                        "actionsetting": {
                            "action": "Copy"
                        },
                        "keysequence": "Ctrl+C"
                    },
                    {
                        "actionsetting": {
                            "action": "ShowDefaultChannel"
                        },
                        "keysequence": "Alt+D"
                    },
                    {
                        "actionsetting": {
                            "action": "CloseCurrentChannel"
                        },
                        "keysequence": "Ctrl+E"
                    },
                    {
                        "actionsetting": {
                            "action": "ToggleFullscreen"
                        },
                        "keysequence": "Ctrl+F"
                    },
                    {
                        "actionsetting": {
                            "action": "ChangeCharacter"
                        },
                        "keysequence": "Ctrl+G"
                    },
                    {
                        "actionsetting": {
                            "action": "ShowLenshelp"
                        },
                        "keysequence": "Ctrl+H"
                    },
                    {
                        "actionsetting": {
                            "action": "ShowIgnorelist"
                        },
                        "keysequence": "Ctrl+I"
                    },
                    {
                        "actionsetting": {
                            "action": "NextHotkeyPreset"
                        },
                        "keysequence": "Ctrl+J"
                    },
                    {
                        "actionsetting": {
                            "action": "ShowOptionsHotkeys"
                        },
                        "keysequence": "Ctrl+K"
                    },
                    {
                        "actionsetting": {
                            "action": "Logout"
                        },
                        "keysequence": "Ctrl+L"
                    },
                    {
                        "actionsetting": {
                            "action": "ToggleShowServermessagesInCurrentChannel"
                        },
                        "keysequence": "Ctrl+M"
                    },
                    {
                        "actionsetting": {
                            "action": "ToggleCreatureHudsVisible"
                        },
                        "keysequence": "Ctrl+N"
                    },
                    {
                        "actionsetting": {
                            "action": "OpenChannelList"
                        },
                        "keysequence": "Ctrl+O"
                    },
                    {
                        "actionsetting": {
                            "action": "ToggleVipWidget"
                        },
                        "keysequence": "Ctrl+P"
                    },
                    {
                        "actionsetting": {
                            "action": "Logout"
                        },
                        "keysequence": "Ctrl+Q"
                    },
                    {
                        "actionsetting": {
                            "action": "ToggleMounted"
                        },
                        "keysequence": "Ctrl+R"
                    },
                    {
                        "actionsetting": {
                            "action": "ToggleSkillsWidget"
                        },
                        "keysequence": "Alt+S"
                    },
                    {
                        "actionsetting": {
                            "action": "ToggleSpellListWidget"
                        },
                        "keysequence": "Alt+L"
                    },
                    {
                        "actionsetting": {
                            "action": "OpenHelpChannel"
                        },
                        "keysequence": "Ctrl+T"
                    },
                    {
                        "actionsetting": {
                            "action": "ShowQuestlog"
                        },
                        "keysequence": "Ctrl+U"
                    },
                    {
                        "actionsetting": {
                            "action": "ClearOldestMessage"
                        },
                        "keysequence": "Alt+W"
                    },
                    {
                        "actionsetting": {
                            "action": "ShowPrey"
                        },
                        "keysequence": "Ctrl+Y"
                    },
                    {
                        "actionsetting": {
                            "action": "Bugreport"
                        },
                        "keysequence": "Ctrl+Z"
                    },
                    {
                        "actionsetting": {
                            "action": "StopPlayer"
                        },
                        "keysequence": "Esc"
                    },
                    {
                        "actionsetting": {
                            "action": "NextChannel"
                        },
                        "keysequence": "Tab"
                    },
                    {
                        "actionsetting": {
                            "action": "PreviousChannel"
                        },
                        "keysequence": "Shift+Backtab"
                    },
                    {
                        "actionsetting": {
                            "action": "MinimapFloorUp"
                        },
                        "keysequence": "Alt+PgUp"
                    },
                    {
                        "actionsetting": {
                            "action": "MinimapFloorDown"
                        },
                        "keysequence": "Alt+PgDown"
                    },
                    {
                        "actionsetting": {
                            "action": "MinimapZoomOut"
                        },
                        "keysequence": "Alt+Home"
                    },
                    {
                        "actionsetting": {
                            "action": "MinimapZoomIn"
                        },
                        "keysequence": "Alt+End"
                    },
                    {
                        "actionsetting": {
                            "action": "MinimapScrollWest"
                        },
                        "keysequence": "Alt+Left"
                    },
                    {
                        "actionsetting": {
                            "action": "MinimapScrollEast"
                        },
                        "keysequence": "Alt+Right"
                    },
                    {
                        "actionsetting": {
                            "action": "MinimapScrollNorth"
                        },
                        "keysequence": "Alt+Up"
                    },
                    {
                        "actionsetting": {
                            "action": "MinimapScrollSouth"
                        },
                        "keysequence": "Alt+Down"
                    },
                    {
                        "actionsetting": {
                            "action": "ToggleFPSLagIndicator"
                        },
                        "keysequence": "Alt+F8"
                    },
                    {
                        "actionsetting": {
                            "action": "ToggleFullscreen"
                        },
                        "keysequence": "Alt+Return"
                    },
                    {
                        "actionsetting": {
                            "action": "PressEnterInChat"
                        },
                        "keysequence": "Return"
                    },
                    {
                        "actionsetting": {
                            "action": "PressEnterInChat"
                        },
                        "keysequence": "Num+Enter"
                    },
                    {
                        "actionsetting": {
                            "action": "TriggerActionButton_1.6"
                        },
                        "keysequence": "F6"
                    },
                    {
                        "actionsetting": {
                            "action": "TriggerActionButton_1.7"
                        },
                        "keysequence": "F7"
                    },
                    {
                        "actionsetting": {
                            "action": "TriggerActionButton_1.8"
                        },
                        "keysequence": "F8"
                    },
                    {
                        "actionsetting": {
                            "action": "TriggerActionButton_1.9"
                        },
                        "keysequence": "F9"
                    },
                    {
                        "actionsetting": {
                            "action": "TriggerActionButton_1.10"
                        },
                        "keysequence": "F10"
                    },
                    {
                        "actionsetting": {
                            "action": "TriggerActionButton_1.11"
                        },
                        "keysequence": "F11"
                    },
                    {
                        "actionsetting": {
                            "action": "TriggerActionButton_1.12"
                        },
                        "keysequence": "F12"
                    },
                    {
                        "actionsetting": {
                            "useObject": 239,
                            "useType": "UseOnYourself"
                        },
                        "keysequence": "F1"
                    },
                    {
                        "actionsetting": {
                            "chatText": "exori gran",
                            "sendAutomatically": true
                        },
                        "keysequence": "F2"
                    },
                    {
                        "actionsetting": {
                            "chatText": "exori gran ico",
                            "sendAutomatically": true
                        },
                        "keysequence": "F3"
                    },
                    {
                        "actionsetting": {
                            "useObject": 9086,
                            "useType": "Use"
                        },
                        "keysequence": "F4"
                    },
                    {
                        "actionsetting": {
                            "chatText": "exori",
                            "sendAutomatically": true
                        },
                        "keysequence": "F5"
                    }
                ]
            },
            "druid": {
                "actionBarOptions": {
                    "mappings": [
                    ]
                },
                "chatOff": [
                    {
                        "actionsetting": {
                            "action": "ToggleBattlelist"
                        },
                        "keysequence": "Ctrl+B"
                    },
                    {
                        "actionsetting": {
                            "action": "Copy"
                        },
                        "keysequence": "Ctrl+C"
                    },
                    {
                        "actionsetting": {
                            "action": "ShowDefaultChannel"
                        },
                        "keysequence": "Alt+D"
                    },
                    {
                        "actionsetting": {
                            "action": "CloseCurrentChannel"
                        },
                        "keysequence": "Ctrl+E"
                    },
                    {
                        "actionsetting": {
                            "action": "ToggleFullscreen"
                        },
                        "keysequence": "Ctrl+F"
                    },
                    {
                        "actionsetting": {
                            "action": "ChangeCharacter"
                        },
                        "keysequence": "Ctrl+G"
                    },
                    {
                        "actionsetting": {
                            "action": "ShowLenshelp"
                        },
                        "keysequence": "Ctrl+H"
                    },
                    {
                        "actionsetting": {
                            "action": "ShowIgnorelist"
                        },
                        "keysequence": "Ctrl+I"
                    },
                    {
                        "actionsetting": {
                            "action": "NextHotkeyPreset"
                        },
                        "keysequence": "Ctrl+J"
                    },
                    {
                        "actionsetting": {
                            "action": "ShowOptionsHotkeys"
                        },
                        "keysequence": "Ctrl+K"
                    },
                    {
                        "actionsetting": {
                            "action": "Logout"
                        },
                        "keysequence": "Ctrl+L"
                    },
                    {
                        "actionsetting": {
                            "action": "ToggleShowServermessagesInCurrentChannel"
                        },
                        "keysequence": "Ctrl+M"
                    },
                    {
                        "actionsetting": {
                            "action": "ToggleCreatureHudsVisible"
                        },
                        "keysequence": "Ctrl+N"
                    },
                    {
                        "actionsetting": {
                            "action": "OpenChannelList"
                        },
                        "keysequence": "Ctrl+O"
                    },
                    {
                        "actionsetting": {
                            "action": "ToggleVipWidget"
                        },
                        "keysequence": "Ctrl+P"
                    },
                    {
                        "actionsetting": {
                            "action": "Logout"
                        },
                        "keysequence": "Ctrl+Q"
                    },
                    {
                        "actionsetting": {
                            "action": "ToggleMounted"
                        },
                        "keysequence": "Ctrl+R"
                    },
                    {
                        "actionsetting": {
                            "action": "ToggleSkillsWidget"
                        },
                        "keysequence": "Alt+S"
                    },
                    {
                        "actionsetting": {
                            "action": "ToggleSpellListWidget"
                        },
                        "keysequence": "Alt+L"
                    },
                    {
                        "actionsetting": {
                            "action": "OpenHelpChannel"
                        },
                        "keysequence": "Ctrl+T"
                    },
                    {
                        "actionsetting": {
                            "action": "ShowQuestlog"
                        },
                        "keysequence": "Ctrl+U"
                    },
                    {
                        "actionsetting": {
                            "action": "ClearOldestMessage"
                        },
                        "keysequence": "Alt+W"
                    },
                    {
                        "actionsetting": {
                            "action": "ShowPrey"
                        },
                        "keysequence": "Ctrl+Y"
                    },
                    {
                        "actionsetting": {
                            "action": "Bugreport"
                        },
                        "keysequence": "Ctrl+Z"
                    },
                    {
                        "actionsetting": {
                            "action": "StopPlayer"
                        },
                        "keysequence": "Esc"
                    },
                    {
                        "actionsetting": {
                            "action": "NextChannel"
                        },
                        "keysequence": "Tab"
                    },
                    {
                        "actionsetting": {
                            "action": "AttackNextTarget"
                        },
                        "keysequence": "Space"
                    },
                    {
                        "actionsetting": {
                            "action": "AttackPreviousTarget"
                        },
                        "keysequence": "Ctrl+Space"
                    },
                    {
                        "actionsetting": {
                            "action": "PreviousChannel"
                        },
                        "keysequence": "Shift+Backtab"
                    },
                    {
                        "actionsetting": {
                            "action": "MinimapFloorUp"
                        },
                        "keysequence": "Alt+PgUp"
                    },
                    {
                        "actionsetting": {
                            "action": "MinimapFloorDown"
                        },
                        "keysequence": "Alt+PgDown"
                    },
                    {
                        "actionsetting": {
                            "action": "MinimapZoomOut"
                        },
                        "keysequence": "Alt+Home"
                    },
                    {
                        "actionsetting": {
                            "action": "MinimapZoomIn"
                        },
                        "keysequence": "Alt+End"
                    },
                    {
                        "actionsetting": {
                            "action": "MinimapScrollWest"
                        },
                        "keysequence": "Alt+Left"
                    },
                    {
                        "actionsetting": {
                            "action": "MinimapScrollEast"
                        },
                        "keysequence": "Alt+Right"
                    },
                    {
                        "actionsetting": {
                            "action": "MinimapScrollNorth"
                        },
                        "keysequence": "Alt+Up"
                    },
                    {
                        "actionsetting": {
                            "action": "MinimapScrollSouth"
                        },
                        "keysequence": "Alt+Down"
                    },
                    {
                        "actionsetting": {
                            "action": "ToggleFPSLagIndicator"
                        },
                        "keysequence": "Alt+F8"
                    },
                    {
                        "actionsetting": {
                            "action": "ToggleFullscreen"
                        },
                        "keysequence": "Alt+Return"
                    },
                    {
                        "actionsetting": {
                            "action": "ChatModeTemporaryOn"
                        },
                        "keysequence": "Return"
                    },
                    {
                        "actionsetting": {
                            "action": "ChatModeTemporaryOn"
                        },
                        "keysequence": "Num+Enter"
                    },
                    {
                        "actionsetting": {
                            "action": "GoNorth"
                        },
                        "keysequence": "W"
                    },
                    {
                        "actionsetting": {
                            "action": "GoWest"
                        },
                        "keysequence": "A"
                    },
                    {
                        "actionsetting": {
                            "action": "GoSouth"
                        },
                        "keysequence": "S"
                    },
                    {
                        "actionsetting": {
                            "action": "GoEast"
                        },
                        "keysequence": "D"
                    },
                    {
                        "actionsetting": {
                            "action": "GoNorthWest"
                        },
                        "keysequence": "Q"
                    },
                    {
                        "actionsetting": {
                            "action": "GoSouthWest"
                        },
                        "keysequence": "Z"
                    },
                    {
                        "actionsetting": {
                            "action": "GoNorthEast"
                        },
                        "keysequence": "E"
                    },
                    {
                        "actionsetting": {
                            "action": "GoSouthEast"
                        },
                        "keysequence": "C"
                    },
                    {
                        "actionsetting": {
                            "action": "TriggerActionButton_1.6"
                        },
                        "keysequence": "F6"
                    },
                    {
                        "actionsetting": {
                            "action": "TriggerActionButton_1.8"
                        },
                        "keysequence": "F8"
                    },
                    {
                        "actionsetting": {
                            "action": "TriggerActionButton_1.9"
                        },
                        "keysequence": "F9"
                    },
                    {
                        "actionsetting": {
                            "action": "TriggerActionButton_1.10"
                        },
                        "keysequence": "F10"
                    },
                    {
                        "actionsetting": {
                            "useObject": 3160,
                            "useType": "UseOnYourself"
                        },
                        "keysequence": "F1"
                    },
                    {
                        "actionsetting": {
                            "chatText": "exura vita",
                            "sendAutomatically": true
                        },
                        "keysequence": "F2"
                    },
                    {
                        "actionsetting": {
                            "useObject": 3155,
                            "useType": "UseOnTarget"
                        },
                        "keysequence": "F3"
                    },
                    {
                        "actionsetting": {
                            "chatText": "exori frigo",
                            "sendAutomatically": true
                        },
                        "keysequence": "F4"
                    },
                    {
                        "actionsetting": {
                            "chatText": "utani gran hur",
                            "sendAutomatically": true
                        },
                        "keysequence": "F5"
                    },
                    {
                        "actionsetting": {
                            "chatText": "exevo gran mas vis",
                            "sendAutomatically": true
                        },
                        "keysequence": "F7"
                    },
                    {
                        "actionsetting": {
                            "useObject": 23373,
                            "useType": "UseOnYourself"
                        },
                        "keysequence": "F11"
                    },
                    {
                        "actionsetting": {
                            "useObject": 9598,
                            "useType": "UseOnYourself"
                        },
                        "keysequence": "F12"
                    },
                    {
                        "actionsetting": {
                            "useObject": 9598,
                            "useType": "SelectUseTarget"
                        },
                        "keysequence": "Shift+F1"
                    }
                ],
                "chatOn": [
                    {
                        "actionsetting": {
                            "useObject": 3160,
                            "useType": "UseOnYourself"
                        },
                        "keysequence": "F1"
                    },
                    {
                        "actionsetting": {
                            "chatText": "exura vita",
                            "sendAutomatically": true
                        },
                        "keysequence": "F2"
                    },
                    {
                        "actionsetting": {
                            "useObject": 3155,
                            "useType": "UseOnTarget"
                        },
                        "keysequence": "F3"
                    },
                    {
                        "actionsetting": {
                            "chatText": "exori frigo",
                            "sendAutomatically": true
                        },
                        "keysequence": "F4"
                    },
                    {
                        "actionsetting": {
                            "chatText": "utani gran hur",
                            "sendAutomatically": true
                        },
                        "keysequence": "F5"
                    },
                    {
                        "actionsetting": {
                            "chatText": "exevo gran mas vis",
                            "sendAutomatically": true
                        },
                        "keysequence": "F7"
                    },
                    {
                        "actionsetting": {
                            "useObject": 23373,
                            "useType": "UseOnYourself"
                        },
                        "keysequence": "F11"
                    },
                    {
                        "actionsetting": {
                            "useObject": 9598,
                            "useType": "UseOnYourself"
                        },
                        "keysequence": "F12"
                    },
                    {
                        "actionsetting": {
                            "useObject": 9598,
                            "useType": "SelectUseTarget"
                        },
                        "keysequence": "Shift+F1"
                    },
                    {
                        "actionsetting": {
                            "action": "TriggerActionButton_1.6"
                        },
                        "keysequence": "F6"
                    },
                    {
                        "actionsetting": {
                            "action": "TriggerActionButton_1.8"
                        },
                        "keysequence": "F8"
                    },
                    {
                        "actionsetting": {
                            "action": "TriggerActionButton_1.9"
                        },
                        "keysequence": "F9"
                    },
                    {
                        "actionsetting": {
                            "action": "TriggerActionButton_1.10"
                        },
                        "keysequence": "F10"
                    },
                    {
                        "actionsetting": {
                            "action": "CloseCurrentChannel"
                        },
                        "keysequence": "Ctrl+E"
                    },
                    {
                        "actionsetting": {
                            "action": "NextChannel"
                        },
                        "keysequence": "Tab"
                    },
                    {
                        "actionsetting": {
                            "action": "OpenChannelList"
                        },
                        "keysequence": "Ctrl+O"
                    },
                    {
                        "actionsetting": {
                            "action": "OpenHelpChannel"
                        },
                        "keysequence": "Ctrl+T"
                    },
                    {
                        "actionsetting": {
                            "action": "PreviousChannel"
                        },
                        "keysequence": "Shift+Backtab"
                    },
                    {
                        "actionsetting": {
                            "action": "ShowDefaultChannel"
                        },
                        "keysequence": "Alt+D"
                    },
                    {
                        "actionsetting": {
                            "action": "Copy"
                        },
                        "keysequence": "Ctrl+C"
                    },
                    {
                        "actionsetting": {
                            "action": "SelectAll"
                        },
                        "keysequence": "Ctrl+A"
                    },
                    {
                        "actionsetting": {
                            "action": "PressEnterInChat"
                        },
                        "keysequence": "Return"
                    },
                    {
                        "actionsetting": {
                            "action": "PressEnterInChat"
                        },
                        "keysequence": "Num+Enter"
                    },
                    {
                        "actionsetting": {
                            "action": "ToggleShowServermessagesInCurrentChannel"
                        },
                        "keysequence": "Ctrl+M"
                    },
                    {
                        "actionsetting": {
                            "action": "Bugreport"
                        },
                        "keysequence": "Ctrl+Z"
                    },
                    {
                        "actionsetting": {
                            "action": "ShowIgnorelist"
                        },
                        "keysequence": "Ctrl+I"
                    },
                    {
                        "actionsetting": {
                            "action": "ShowOptionsHotkeys"
                        },
                        "keysequence": "Ctrl+K"
                    },
                    {
                        "actionsetting": {
                            "action": "ShowPrey"
                        },
                        "keysequence": "Ctrl+Y"
                    },
                    {
                        "actionsetting": {
                            "action": "ShowQuestlog"
                        },
                        "keysequence": "Ctrl+U"
                    },
                    {
                        "actionsetting": {
                            "action": "MinimapFloorDown"
                        },
                        "keysequence": "Alt+PgDown"
                    },
                    {
                        "actionsetting": {
                            "action": "MinimapFloorUp"
                        },
                        "keysequence": "Alt+PgUp"
                    },
                    {
                        "actionsetting": {
                            "action": "MinimapScrollEast"
                        },
                        "keysequence": "Alt+Right"
                    },
                    {
                        "actionsetting": {
                            "action": "MinimapScrollNorth"
                        },
                        "keysequence": "Alt+Up"
                    },
                    {
                        "actionsetting": {
                            "action": "MinimapScrollSouth"
                        },
                        "keysequence": "Alt+Down"
                    },
                    {
                        "actionsetting": {
                            "action": "MinimapScrollWest"
                        },
                        "keysequence": "Alt+Left"
                    },
                    {
                        "actionsetting": {
                            "action": "MinimapZoomIn"
                        },
                        "keysequence": "Alt+End"
                    },
                    {
                        "actionsetting": {
                            "action": "MinimapZoomOut"
                        },
                        "keysequence": "Alt+Home"
                    },
                    {
                        "actionsetting": {
                            "action": "ShowLenshelp"
                        },
                        "keysequence": "Ctrl+H"
                    },
                    {
                        "actionsetting": {
                            "action": "ChangeCharacter"
                        },
                        "keysequence": "Ctrl+G"
                    },
                    {
                        "actionsetting": {
                            "action": "ClearOldestMessage"
                        },
                        "keysequence": "Alt+W"
                    },
                    {
                        "actionsetting": {
                            "action": "Logout"
                        },
                        "keysequence": "Ctrl+L"
                    },
                    {
                        "actionsetting": {
                            "action": "Logout"
                        },
                        "keysequence": "Ctrl+Q"
                    },
                    {
                        "actionsetting": {
                            "action": "NextHotkeyPreset"
                        },
                        "keysequence": "Ctrl+J"
                    },
                    {
                        "actionsetting": {
                            "action": "ToggleMounted"
                        },
                        "keysequence": "Ctrl+R"
                    },
                    {
                        "actionsetting": {
                            "action": "StopPlayer"
                        },
                        "keysequence": "Esc"
                    },
                    {
                        "actionsetting": {
                            "action": "ToggleCreatureHudsVisible"
                        },
                        "keysequence": "Ctrl+N"
                    },
                    {
                        "actionsetting": {
                            "action": "ToggleFPSLagIndicator"
                        },
                        "keysequence": "Alt+F8"
                    },
                    {
                        "actionsetting": {
                            "action": "ToggleFullscreen"
                        },
                        "keysequence": "Ctrl+F"
                    },
                    {
                        "actionsetting": {
                            "action": "ToggleFullscreen"
                        },
                        "keysequence": "Alt+Return"
                    },
                    {
                        "actionsetting": {
                            "action": "ToggleVipWidget"
                        },
                        "keysequence": "Ctrl+P"
                    },
                    {
                        "actionsetting": {
                            "action": "ToggleBattlelist"
                        },
                        "keysequence": "Ctrl+B"
                    },
                    {
                        "actionsetting": {
                            "action": "ToggleSkillsWidget"
                        },
                        "keysequence": "Alt+S"
                    },
                    {
                        "actionsetting": {
                            "action": "ToggleSpellListWidget"
                        },
                        "keysequence": "Alt+L"
                    }
                ]
            }
        },
        "showStaticHotkeysFirst": true
    },
    "options": {
        "actionBarLocked": false,
        "actionBarShowAction1": true,
        "actionBarShowAction2": false,
        "actionButtonAllowTooltip": true,
        "actionButtonShowAmount": true,
        "actionButtonShowCooldownNumbers": true,
        "actionButtonShowGraphicalCooldown": true,
        "actionButtonShowHotkey": true,
        "actionButtonShowSpellParameters": true,
        "antialiasingMode": 2,
        "autoChaseEnabled": false,
        "characterSelectionShowHidden": true,
        "characterSelectionShowOutfits": true,
        "colorizeLootStyle": 1,
        "combatShowFrames": true,
        "combatShowPvpFrames": true,
        "connectionStabilityOptimizationEnabled": true,
        "consoleShowEventMessages": true,
        "consoleShowInfoMessages": true,
        "consoleShowJoinLeaveMessages": true,
        "consoleShowLevels": true,
        "consoleShowStatusMessagesOfOthers": true,
        "consoleShowStatusMessagesOwn": true,
        "consoleShowTimestamps": true,
        "controlSchemeIndex": 0,
        "cooldownBarEnabled": true,
        "creatueShowNpcIcon": true,
        "creatureHudEnabled": true,
        "creatureShowHealth": true,
        "creatureShowMarks": true,
        "creatureShowName": true,
        "dragAndDropDefaultActionIsMoveAll": false,
        "frameRateLimit": 50,
        "frameRateLimitEnabled": false,
        "gameWindowScaleOnlyByEvenMultiples": false,
        "gameWindowShowBoostedCreatureMessages": true,
        "gameWindowShowHotkeyUsageMessages": true,
        "gameWindowShowLootMessages": true,
        "gameWindowShowMessages": true,
        "gameWindowShowOfflineTrainingMessages": true,
        "gameWindowShowOthersSpells": true,
        "gameWindowShowOwnSpells": true,
        "gameWindowShowPotionMessages": true,
        "gameWindowShowPrivateMessages": true,
        "gameWindowShowStoreMessages": true,
        "gameWindowShowTextualEffects": true,
        "inspectPlayerAllowAllEnabled": false,
        "keyboardDelayMs": 250,
        "keyboardDelayUseDefault": true,
        "lightAmbientLevel": 1,
        "lightAttenuationCloudsIndoor": 0.75,
        "lightEffectsEnabled": true,
        "lightLevelSeparatorLevel": 0.80000001192092896,
        "linkCopyWarningEnabled": true,
        "loginEmailAddress": "willamspaiva5@gmail.com",
        "lootSchemeIndex": 0,
        "mapWindowHeight": 377,
        "marketShowLockerOnly": false,
        "mouseAnimatedCursor": true,
        "mouseHighlightTarget": true,
        "mouseSystemCursor": false,
        "openCharacterTrackingChannelOnLogin": true,
        "optionsShowAdvanced": false,
        "playerHudBarStyle": true,
        "playerHudEnabled": true,
        "playerShowHealth": true,
        "playerShowMana": true,
        "playerShowMarks": true,
        "playerShowName": true,
        "quickLogin": true,
        "rememberLoginEmail": true,
        "rendererIndex": 0,
        "rotateWithAlt": false,
        "rotateWithCtrl": true,
        "rotateWithShift": false,
        "screenshotsAchievementEnabled": true,
        "screenshotsAutoScreenshotsEnabled": true,
        "screenshotsBestiaryFullEnabled": false,
        "screenshotsBestiaryPartlyEnabled": false,
        "screenshotsBossKillEnabled": false,
        "screenshotsDeathPvEEnabled": true,
        "screenshotsDeathPvPEnabled": true,
        "screenshotsLevelUpEnabled": true,
        "screenshotsLowHitPointsEnabled": false,
        "screenshotsNewMaxDamageEnabled": false,
        "screenshotsNewMaxHealingEnabled": false,
        "screenshotsPlayerKillAssistEnabled": false,
        "screenshotsPlayerKillFullEnabled": false,
        "screenshotsPvPAttackEnabled": false,
        "screenshotsRewardChestEnabled": false,
        "screenshotsSkillUpEnabled": true,
        "screenshotsTrackedLootEnabled": false,
        "screenshotsUseBacklog": false,
        "screnshotsOnlyGameWindow": true,
        "sessionRemainLoggedIn": true,
        "showDailyRemainingTournamentPlaytimeIndicator": true,
        "showEMailAsPlainText": true,
        "stashAskBeforeStowContainerContent": true,
        "statusBarEnabled": true,
        "statusPanelEnabled": false,
        "storeAskBeforeBuyingProducts": false,
        "vSyncEnabled": true
    },
    "rendererChangeConfirmationRequired": false,
    "survey": {
        "id": 0,
        "status": 2
    },
    "whiteBlacklistOptions": {
        "blacklistedNames": [
            ""
        ],
        "whitelistedNames": [
            ""
        ]
    }
}
