{
    "areaID": 0,
    "selectedMarkers": [
    ],
    "shadingValue": 0,
    "showAreaAndSubAreaInfo": true,
    "showDisplay": true,
    "showNPCMarker": false,
    "showNavigation": true,
    "showPassageMarker": false,
    "surfaceView": true
}
